G04 start of page 6 for group -4062 idx -4062 *
G04 Title: IC Proto Board, soldermask *
G04 Creator: pcb 20110918 *
G04 CreationDate: Sun 09 Aug 2015 09:21:10 PM GMT UTC *
G04 For: jjmcd *
G04 Format: Gerber/RS-274X *
G04 PCB-Dimensions: 393000 393000 *
G04 PCB-Coordinate-Origin: lower left *
%MOIN*%
%FSLAX25Y25*%
%LNBOTTOMMASK*%
%ADD44R,0.0450X0.0450*%
%ADD43R,0.0600X0.0600*%
%ADD42C,0.0560*%
%ADD41C,0.1800*%
%ADD40C,0.0001*%
%ADD39C,0.0060*%
%ADD38C,0.0660*%
G54D38*X80000Y353000D03*
X70000D03*
G54D39*D03*
X80000D03*
X70000D03*
X40000D03*
D03*
Y333000D03*
Y343000D03*
Y353000D03*
Y333000D03*
G54D38*X60000Y353000D03*
X50000D03*
G54D39*X60000D03*
X50000D03*
D03*
X60000D03*
X80000Y333000D03*
Y343000D03*
X60000Y333000D03*
Y343000D03*
X50000Y333000D03*
Y343000D03*
X70000D03*
G54D38*X30000Y353000D03*
X20000D03*
X10000D03*
G54D39*X30000D03*
X20000D03*
X10000D03*
G54D38*Y343000D03*
G54D39*D03*
G54D38*Y333000D03*
Y323000D03*
G54D39*Y333000D03*
Y323000D03*
Y333000D03*
X40000Y323000D03*
X30000D03*
X20000D03*
X50000D03*
D03*
X30000Y333000D03*
Y343000D03*
X20000Y333000D03*
Y343000D03*
G54D38*X120000Y353000D03*
G54D39*D03*
D03*
G54D38*X110000D03*
G54D39*X100000D03*
X110000D03*
D03*
G54D38*X130000D03*
G54D39*D03*
D03*
X90000D03*
D03*
D03*
X140000D03*
D03*
Y343000D03*
Y353000D03*
X150000D03*
X160000D03*
X170000D03*
X160000D03*
G54D38*D03*
X170000D03*
G54D39*X150000Y333000D03*
Y343000D03*
Y323000D03*
X140000Y333000D03*
X90000Y233000D03*
D03*
Y243000D03*
Y253000D03*
Y263000D03*
Y253000D03*
Y273000D03*
Y283000D03*
Y293000D03*
Y273000D03*
Y293000D03*
Y303000D03*
Y313000D03*
Y323000D03*
Y333000D03*
Y313000D03*
Y343000D03*
Y333000D03*
X130000Y293000D03*
Y303000D03*
Y313000D03*
X120000Y293000D03*
Y303000D03*
Y313000D03*
Y323000D03*
Y333000D03*
Y343000D03*
X130000Y323000D03*
Y333000D03*
Y343000D03*
X110000Y323000D03*
Y333000D03*
Y343000D03*
Y313000D03*
X100000D03*
Y323000D03*
D03*
Y333000D03*
Y343000D03*
X110000Y293000D03*
Y303000D03*
X100000D03*
Y293000D03*
Y303000D03*
Y283000D03*
Y273000D03*
Y283000D03*
Y263000D03*
D03*
X170000Y233000D03*
X160000D03*
X170000Y243000D03*
X160000D03*
X180000Y233000D03*
Y243000D03*
Y253000D03*
X170000D03*
X160000D03*
X170000Y263000D03*
X120000Y233000D03*
Y243000D03*
Y253000D03*
X130000Y233000D03*
Y243000D03*
Y253000D03*
Y263000D03*
Y273000D03*
Y283000D03*
X110000Y233000D03*
Y243000D03*
Y253000D03*
Y263000D03*
Y273000D03*
Y283000D03*
X120000Y263000D03*
Y273000D03*
Y283000D03*
G54D38*X10000Y253000D03*
G54D39*D03*
D03*
X20000D03*
G54D38*X10000Y243000D03*
Y233000D03*
G54D39*Y243000D03*
Y233000D03*
X40000D03*
D03*
X50000D03*
X20000D03*
X30000D03*
X40000Y243000D03*
X20000D03*
X30000D03*
X50000Y253000D03*
X30000D03*
X50000Y243000D03*
D03*
G54D38*X10000Y293000D03*
Y283000D03*
G54D39*Y293000D03*
Y283000D03*
Y293000D03*
G54D38*Y273000D03*
G54D39*D03*
D03*
X30000D03*
X20000D03*
G54D38*X10000Y263000D03*
G54D39*D03*
X30000D03*
X20000D03*
G54D38*X10000Y313000D03*
Y303000D03*
G54D39*Y313000D03*
Y303000D03*
Y313000D03*
X20000Y303000D03*
Y293000D03*
X30000Y303000D03*
Y293000D03*
Y283000D03*
X20000D03*
Y313000D03*
X30000D03*
X70000Y233000D03*
X80000D03*
Y243000D03*
Y253000D03*
X70000Y243000D03*
Y253000D03*
Y263000D03*
X60000Y233000D03*
Y243000D03*
Y253000D03*
Y263000D03*
Y273000D03*
Y283000D03*
X80000Y263000D03*
Y273000D03*
Y283000D03*
Y293000D03*
X70000Y273000D03*
Y283000D03*
Y293000D03*
X80000Y303000D03*
Y313000D03*
Y323000D03*
X60000Y303000D03*
Y313000D03*
Y323000D03*
X70000Y303000D03*
Y313000D03*
Y323000D03*
Y333000D03*
X50000Y313000D03*
X40000Y253000D03*
D03*
Y263000D03*
Y273000D03*
Y283000D03*
Y273000D03*
Y293000D03*
Y303000D03*
Y313000D03*
Y293000D03*
Y313000D03*
X60000Y293000D03*
X50000D03*
Y303000D03*
D03*
Y283000D03*
Y273000D03*
Y283000D03*
Y263000D03*
D03*
G54D38*X210000Y353000D03*
G54D39*X200000D03*
X210000D03*
X200000D03*
X210000D03*
G54D38*X180000D03*
G54D39*D03*
X190000D03*
X180000D03*
X190000D03*
X180000Y333000D03*
Y343000D03*
X210000D03*
X200000D03*
X190000Y333000D03*
X200000D03*
X190000D03*
X200000D03*
X190000Y343000D03*
D03*
G54D38*X230000Y353000D03*
G54D39*D03*
X240000D03*
D03*
X230000D03*
X240000D03*
G54D38*X220000D03*
G54D39*D03*
D03*
D03*
X180000Y323000D03*
X190000D03*
D03*
X200000D03*
D03*
X220000Y333000D03*
X230000D03*
X210000D03*
X220000Y343000D03*
X230000D03*
X220000Y323000D03*
X230000D03*
X210000D03*
X240000D03*
Y333000D03*
Y343000D03*
Y323000D03*
Y343000D03*
Y333000D03*
X170000Y373000D03*
Y383000D03*
Y363000D03*
X180000D03*
X190000D03*
X210000D03*
X201000D03*
X160000Y373000D03*
X180000D03*
X190000D03*
X210000D03*
X201000D03*
X160000Y383000D03*
X120000D03*
X110000D03*
X180000D03*
X190000D03*
X210000D03*
X201000D03*
X160000Y363000D03*
X120000D03*
X110000D03*
X130000Y373000D03*
Y383000D03*
Y363000D03*
X120000Y373000D03*
X110000D03*
X100000D03*
Y383000D03*
X90000D03*
X80000D03*
X100000Y363000D03*
X90000D03*
X80000D03*
X70000D03*
X60000D03*
X50000D03*
X90000Y373000D03*
X80000D03*
X70000D03*
X60000D03*
X50000D03*
X40000D03*
X70000Y383000D03*
X60000D03*
X50000D03*
X40000D03*
Y363000D03*
X160000Y123000D03*
X170000Y133000D03*
Y143000D03*
X180000D03*
Y153000D03*
Y163000D03*
X160000Y133000D03*
Y143000D03*
Y153000D03*
Y163000D03*
X170000Y153000D03*
Y163000D03*
Y173000D03*
X180000D03*
Y183000D03*
Y193000D03*
Y203000D03*
X160000Y173000D03*
Y183000D03*
Y193000D03*
Y203000D03*
X170000Y183000D03*
Y193000D03*
Y203000D03*
Y213000D03*
X180000D03*
Y223000D03*
X140000Y173000D03*
Y183000D03*
Y193000D03*
Y173000D03*
Y193000D03*
Y203000D03*
Y213000D03*
Y223000D03*
Y213000D03*
Y373000D03*
Y383000D03*
Y363000D03*
Y233000D03*
Y243000D03*
Y253000D03*
Y233000D03*
Y253000D03*
Y263000D03*
X150000D03*
D03*
X140000Y273000D03*
Y283000D03*
Y273000D03*
X150000Y283000D03*
Y273000D03*
Y283000D03*
Y253000D03*
Y243000D03*
Y233000D03*
Y243000D03*
X140000Y293000D03*
Y303000D03*
Y313000D03*
Y293000D03*
Y313000D03*
Y323000D03*
X150000Y313000D03*
Y323000D03*
Y303000D03*
Y293000D03*
Y303000D03*
X140000Y333000D03*
X150000Y223000D03*
D03*
Y213000D03*
Y203000D03*
D03*
Y193000D03*
Y183000D03*
Y173000D03*
Y183000D03*
Y373000D03*
Y383000D03*
Y363000D03*
X160000Y213000D03*
Y223000D03*
Y263000D03*
Y273000D03*
Y283000D03*
Y293000D03*
X170000Y223000D03*
Y273000D03*
Y283000D03*
Y293000D03*
Y303000D03*
X180000Y263000D03*
Y273000D03*
Y283000D03*
Y293000D03*
Y303000D03*
X160000D03*
Y313000D03*
Y323000D03*
Y333000D03*
Y343000D03*
X170000Y313000D03*
Y323000D03*
Y333000D03*
Y343000D03*
X180000Y313000D03*
X190000Y243000D03*
D03*
Y253000D03*
Y263000D03*
Y273000D03*
Y263000D03*
Y283000D03*
Y293000D03*
Y303000D03*
Y283000D03*
Y303000D03*
Y313000D03*
X220000Y273000D03*
Y283000D03*
Y293000D03*
Y303000D03*
X230000D03*
Y313000D03*
X220000D03*
X210000D03*
X200000D03*
D03*
X210000Y293000D03*
Y303000D03*
X200000D03*
Y293000D03*
D03*
X210000Y273000D03*
Y283000D03*
X200000D03*
Y273000D03*
D03*
G54D38*X80000Y23000D03*
X90000D03*
G54D39*X80000D03*
X90000D03*
X80000D03*
G54D38*X110000D03*
X100000D03*
G54D39*D03*
X110000D03*
X100000D03*
D03*
Y33000D03*
Y43000D03*
X90000D03*
Y53000D03*
Y33000D03*
G54D38*X160000Y23000D03*
X150000D03*
G54D39*X160000D03*
X150000D03*
X160000D03*
X150000D03*
G54D38*X140000D03*
G54D39*D03*
D03*
G54D38*X120000D03*
X130000D03*
G54D39*X120000D03*
X130000D03*
X120000D03*
G54D38*X170000D03*
G54D39*D03*
X150000Y33000D03*
Y43000D03*
D03*
X140000D03*
Y53000D03*
Y33000D03*
Y53000D03*
X170000Y33000D03*
X160000D03*
X170000Y43000D03*
X160000D03*
X170000Y53000D03*
X160000D03*
X150000D03*
X80000Y103000D03*
Y113000D03*
Y123000D03*
Y133000D03*
Y143000D03*
Y153000D03*
Y163000D03*
G54D38*X240000Y23000D03*
G54D39*X230000D03*
X240000D03*
D03*
G54D38*X260000D03*
G54D39*D03*
D03*
G54D38*X250000D03*
G54D39*D03*
G54D38*X230000D03*
X220000D03*
X210000D03*
G54D39*D03*
X220000D03*
D03*
G54D38*X200000D03*
G54D39*D03*
D03*
D03*
G54D38*X190000D03*
X180000D03*
G54D39*D03*
X190000D03*
X180000D03*
Y33000D03*
Y43000D03*
X200000Y33000D03*
D03*
Y43000D03*
D03*
X180000Y53000D03*
X220000D03*
X230000D03*
X210000D03*
X200000D03*
D03*
X220000Y43000D03*
X210000D03*
X230000D03*
Y63000D03*
Y73000D03*
X220000Y63000D03*
X210000D03*
X220000Y73000D03*
X210000D03*
X220000Y83000D03*
X210000D03*
X190000Y73000D03*
Y63000D03*
X200000Y73000D03*
Y63000D03*
Y73000D03*
X190000Y83000D03*
D03*
X200000D03*
X170000Y63000D03*
Y73000D03*
Y83000D03*
X160000Y63000D03*
Y73000D03*
Y83000D03*
Y93000D03*
Y103000D03*
Y113000D03*
X170000Y93000D03*
Y103000D03*
Y113000D03*
Y123000D03*
X140000Y63000D03*
Y73000D03*
Y83000D03*
Y73000D03*
Y93000D03*
Y103000D03*
Y113000D03*
Y93000D03*
Y113000D03*
Y123000D03*
X150000D03*
D03*
X140000Y133000D03*
D03*
X150000D03*
X140000Y143000D03*
Y153000D03*
Y163000D03*
Y153000D03*
X150000Y163000D03*
D03*
Y153000D03*
Y143000D03*
D03*
Y113000D03*
Y103000D03*
Y93000D03*
Y103000D03*
Y83000D03*
D03*
Y73000D03*
Y63000D03*
D03*
X180000D03*
Y73000D03*
Y83000D03*
Y93000D03*
X190000D03*
X230000Y83000D03*
Y93000D03*
Y103000D03*
Y113000D03*
X220000Y93000D03*
X210000D03*
X220000Y103000D03*
X210000D03*
X220000Y113000D03*
X210000D03*
X220000Y123000D03*
X210000D03*
X200000D03*
Y113000D03*
D03*
Y103000D03*
Y93000D03*
D03*
G54D38*X10000Y133000D03*
G54D39*Y123000D03*
Y133000D03*
G54D38*Y123000D03*
Y113000D03*
Y103000D03*
G54D39*Y113000D03*
Y103000D03*
Y113000D03*
Y93000D03*
D03*
X20000D03*
Y123000D03*
Y113000D03*
Y103000D03*
G54D38*Y43000D03*
G54D39*D03*
D03*
X10000Y83000D03*
Y73000D03*
Y63000D03*
Y73000D03*
Y63000D03*
Y53000D03*
D03*
Y43000D03*
D03*
X20000Y83000D03*
Y73000D03*
Y63000D03*
Y53000D03*
Y133000D03*
Y193000D03*
Y183000D03*
Y173000D03*
Y163000D03*
X10000Y193000D03*
Y183000D03*
Y173000D03*
Y163000D03*
X20000Y213000D03*
X10000D03*
G54D40*G36*
X6700Y216300D02*Y209700D01*
X13300D01*
Y216300D01*
X6700D01*
G37*
G54D39*X20000Y203000D03*
X10000D03*
G54D38*D03*
Y193000D03*
Y183000D03*
Y173000D03*
Y163000D03*
G54D39*X120000Y33000D03*
X110000D03*
X120000Y43000D03*
X110000D03*
X130000Y33000D03*
Y43000D03*
Y53000D03*
X120000D03*
X110000D03*
X120000Y63000D03*
X110000D03*
X130000D03*
X120000Y73000D03*
X110000D03*
X120000Y83000D03*
X110000D03*
X130000Y73000D03*
Y83000D03*
Y93000D03*
X120000D03*
X110000D03*
X120000Y103000D03*
X110000D03*
X130000D03*
Y113000D03*
Y123000D03*
Y133000D03*
X120000Y113000D03*
X110000D03*
X120000Y123000D03*
X110000D03*
X120000Y133000D03*
X110000D03*
X120000Y143000D03*
X110000D03*
X130000D03*
Y153000D03*
Y163000D03*
Y173000D03*
X120000Y153000D03*
X110000D03*
X120000Y163000D03*
X110000D03*
X120000Y173000D03*
X110000D03*
X120000Y183000D03*
X110000D03*
X130000D03*
Y193000D03*
Y203000D03*
Y213000D03*
X120000Y193000D03*
X110000D03*
X120000Y203000D03*
X110000D03*
X120000Y213000D03*
X110000D03*
X120000Y223000D03*
X110000D03*
X130000D03*
X100000Y253000D03*
Y243000D03*
D03*
Y233000D03*
Y223000D03*
D03*
Y213000D03*
Y203000D03*
Y193000D03*
Y203000D03*
Y183000D03*
D03*
Y173000D03*
Y163000D03*
D03*
Y153000D03*
Y143000D03*
Y133000D03*
Y143000D03*
Y123000D03*
D03*
Y113000D03*
Y103000D03*
D03*
Y93000D03*
Y83000D03*
Y73000D03*
Y83000D03*
Y63000D03*
D03*
Y53000D03*
Y43000D03*
G54D38*X40000D03*
X30000D03*
G54D39*X40000D03*
X30000D03*
X40000D03*
X30000D03*
G54D38*X40000Y33000D03*
G54D39*D03*
G54D38*Y23000D03*
X50000D03*
G54D39*D03*
X40000D03*
D03*
X50000D03*
X40000Y53000D03*
X30000Y63000D03*
Y53000D03*
X50000D03*
Y43000D03*
Y33000D03*
Y43000D03*
X90000Y63000D03*
Y53000D03*
Y73000D03*
Y83000D03*
Y73000D03*
Y93000D03*
Y103000D03*
Y113000D03*
Y93000D03*
Y113000D03*
G54D38*X70000Y23000D03*
X60000D03*
G54D39*D03*
X70000D03*
X60000D03*
X70000Y33000D03*
X60000D03*
X70000Y43000D03*
X60000D03*
X80000Y33000D03*
Y43000D03*
Y53000D03*
X70000D03*
X60000D03*
X70000Y63000D03*
X60000D03*
X80000D03*
Y73000D03*
Y83000D03*
Y93000D03*
X70000Y73000D03*
X60000D03*
X70000Y83000D03*
X60000D03*
X70000Y93000D03*
X60000D03*
X70000Y103000D03*
X60000D03*
X40000Y63000D03*
X50000D03*
D03*
X40000Y73000D03*
Y83000D03*
Y73000D03*
X50000Y93000D03*
Y83000D03*
Y73000D03*
Y83000D03*
X40000Y93000D03*
D03*
X30000D03*
X50000Y113000D03*
X30000Y123000D03*
Y133000D03*
Y113000D03*
X50000Y103000D03*
D03*
X40000D03*
Y113000D03*
D03*
X30000Y103000D03*
Y83000D03*
Y73000D03*
X90000Y123000D03*
Y133000D03*
D03*
Y143000D03*
Y153000D03*
Y163000D03*
Y153000D03*
Y173000D03*
Y183000D03*
Y193000D03*
Y173000D03*
Y193000D03*
Y203000D03*
Y213000D03*
Y223000D03*
Y213000D03*
X70000Y113000D03*
Y123000D03*
Y133000D03*
X60000Y113000D03*
Y123000D03*
Y133000D03*
Y143000D03*
Y153000D03*
Y163000D03*
X70000Y143000D03*
Y153000D03*
Y163000D03*
Y173000D03*
X80000D03*
Y183000D03*
Y193000D03*
Y203000D03*
Y213000D03*
Y223000D03*
X60000Y173000D03*
Y183000D03*
Y193000D03*
Y203000D03*
Y213000D03*
Y223000D03*
X70000Y183000D03*
Y193000D03*
Y203000D03*
Y213000D03*
Y223000D03*
X40000Y123000D03*
Y133000D03*
D03*
Y143000D03*
Y153000D03*
Y163000D03*
Y153000D03*
X30000Y193000D03*
Y213000D03*
Y203000D03*
Y183000D03*
Y173000D03*
Y163000D03*
X40000Y173000D03*
Y183000D03*
Y193000D03*
Y173000D03*
Y193000D03*
Y203000D03*
X50000D03*
D03*
X40000Y213000D03*
Y223000D03*
Y213000D03*
X50000Y223000D03*
Y213000D03*
Y223000D03*
Y193000D03*
Y183000D03*
Y173000D03*
Y183000D03*
Y163000D03*
D03*
Y153000D03*
Y143000D03*
Y133000D03*
Y143000D03*
Y123000D03*
D03*
G54D38*X380000Y223000D03*
G54D39*D03*
G54D38*Y213000D03*
G54D39*D03*
X370000D03*
Y203000D03*
G54D38*X380000D03*
Y193000D03*
G54D39*Y203000D03*
Y193000D03*
Y203000D03*
X370000Y193000D03*
X350000Y223000D03*
Y213000D03*
D03*
X360000D03*
Y203000D03*
Y193000D03*
Y223000D03*
X370000D03*
G54D38*X380000Y143000D03*
G54D39*D03*
D03*
G54D38*Y133000D03*
G54D39*D03*
G54D38*Y123000D03*
G54D39*D03*
D03*
G54D38*Y113000D03*
Y103000D03*
G54D39*Y113000D03*
Y103000D03*
D03*
X370000Y123000D03*
Y113000D03*
X360000Y123000D03*
Y113000D03*
Y103000D03*
X370000D03*
Y133000D03*
X360000D03*
G54D38*X380000Y93000D03*
G54D39*D03*
Y83000D03*
D03*
G54D38*D03*
Y73000D03*
Y63000D03*
G54D39*Y73000D03*
Y63000D03*
D03*
X350000Y93000D03*
Y83000D03*
Y93000D03*
X360000D03*
Y63000D03*
Y73000D03*
Y83000D03*
X370000D03*
Y93000D03*
Y63000D03*
Y73000D03*
G54D38*X380000Y163000D03*
Y153000D03*
G54D39*Y163000D03*
Y153000D03*
Y163000D03*
G54D38*Y183000D03*
Y173000D03*
G54D39*Y183000D03*
Y173000D03*
Y183000D03*
X350000Y203000D03*
Y193000D03*
Y183000D03*
Y193000D03*
Y173000D03*
D03*
X360000D03*
Y153000D03*
Y163000D03*
Y143000D03*
X370000Y183000D03*
X360000D03*
X370000Y173000D03*
Y153000D03*
Y163000D03*
Y143000D03*
X350000Y163000D03*
Y153000D03*
Y143000D03*
Y153000D03*
Y133000D03*
Y123000D03*
Y133000D03*
Y113000D03*
D03*
Y103000D03*
G54D38*X380000Y53000D03*
G54D39*D03*
G54D38*Y43000D03*
G54D39*D03*
D03*
G54D38*X350000D03*
G54D39*D03*
D03*
Y73000D03*
Y63000D03*
Y73000D03*
Y53000D03*
D03*
X370000D03*
Y43000D03*
X360000Y53000D03*
Y43000D03*
X280000Y73000D03*
X270000Y83000D03*
X260000D03*
X270000Y93000D03*
X260000D03*
X280000Y83000D03*
Y93000D03*
Y103000D03*
X290000D03*
D03*
X270000D03*
X260000D03*
X270000Y113000D03*
X260000D03*
X280000D03*
Y123000D03*
Y133000D03*
Y143000D03*
X270000Y123000D03*
X260000D03*
X270000Y133000D03*
X260000D03*
X320000Y73000D03*
Y83000D03*
Y93000D03*
X330000Y103000D03*
Y113000D03*
Y123000D03*
X310000Y103000D03*
Y113000D03*
Y123000D03*
X320000Y103000D03*
Y113000D03*
Y123000D03*
X290000Y113000D03*
X300000D03*
D03*
X290000Y123000D03*
Y133000D03*
Y123000D03*
Y143000D03*
Y153000D03*
Y163000D03*
Y143000D03*
Y163000D03*
X300000D03*
Y153000D03*
D03*
Y143000D03*
Y133000D03*
Y123000D03*
Y133000D03*
Y103000D03*
X270000Y143000D03*
X260000D03*
X270000Y153000D03*
X260000D03*
X280000D03*
Y163000D03*
Y173000D03*
Y183000D03*
X270000Y163000D03*
X260000D03*
X270000Y173000D03*
X260000D03*
X290000D03*
Y183000D03*
X330000Y133000D03*
Y143000D03*
Y153000D03*
X310000Y133000D03*
Y143000D03*
Y153000D03*
X320000Y133000D03*
Y143000D03*
Y153000D03*
Y163000D03*
X330000D03*
Y173000D03*
Y183000D03*
X310000Y163000D03*
Y173000D03*
Y183000D03*
Y193000D03*
Y203000D03*
Y213000D03*
X320000Y173000D03*
Y183000D03*
Y193000D03*
Y203000D03*
Y213000D03*
Y223000D03*
X330000Y193000D03*
Y203000D03*
Y213000D03*
Y223000D03*
X310000D03*
X270000Y183000D03*
X260000D03*
X270000Y193000D03*
X260000D03*
X270000Y203000D03*
X260000D03*
X270000Y213000D03*
X260000D03*
X270000Y223000D03*
X260000D03*
X280000Y193000D03*
Y203000D03*
Y213000D03*
Y223000D03*
X290000Y183000D03*
Y193000D03*
Y203000D03*
D03*
Y213000D03*
X300000D03*
D03*
X290000Y223000D03*
D03*
X300000D03*
Y203000D03*
Y193000D03*
Y183000D03*
Y193000D03*
Y173000D03*
D03*
X320000Y43000D03*
Y53000D03*
Y63000D03*
X330000Y43000D03*
Y53000D03*
X310000Y43000D03*
Y53000D03*
Y63000D03*
Y73000D03*
Y83000D03*
Y93000D03*
X320000Y33000D03*
X310000D03*
X290000Y73000D03*
Y83000D03*
Y63000D03*
Y83000D03*
Y63000D03*
Y93000D03*
X300000D03*
D03*
Y83000D03*
Y73000D03*
Y63000D03*
Y73000D03*
G54D38*X320000Y23000D03*
X330000D03*
G54D39*X320000D03*
X330000D03*
X320000D03*
X330000D03*
G54D38*X350000D03*
G54D39*D03*
G54D38*D03*
G54D39*D03*
G54D38*X340000D03*
G54D39*D03*
D03*
G54D38*D03*
G54D39*X350000Y33000D03*
D03*
X340000D03*
X330000D03*
Y63000D03*
Y73000D03*
X340000D03*
Y63000D03*
D03*
Y43000D03*
D03*
Y53000D03*
D03*
X330000Y83000D03*
Y93000D03*
X340000Y83000D03*
Y93000D03*
Y83000D03*
Y103000D03*
D03*
Y113000D03*
Y123000D03*
Y133000D03*
Y123000D03*
Y143000D03*
Y153000D03*
Y163000D03*
Y143000D03*
Y163000D03*
Y173000D03*
Y183000D03*
Y193000D03*
Y183000D03*
Y203000D03*
Y213000D03*
Y223000D03*
Y203000D03*
Y223000D03*
X220000Y233000D03*
X210000D03*
X220000Y243000D03*
X210000D03*
X230000Y233000D03*
Y243000D03*
Y253000D03*
X220000D03*
X210000D03*
X220000Y263000D03*
X210000D03*
X190000Y233000D03*
X200000D03*
D03*
Y253000D03*
Y243000D03*
Y253000D03*
X230000Y263000D03*
Y273000D03*
Y283000D03*
Y293000D03*
X240000Y273000D03*
Y283000D03*
D03*
Y263000D03*
X200000D03*
X270000D03*
X280000D03*
X260000D03*
X240000D03*
X250000D03*
X270000Y233000D03*
X280000D03*
X260000D03*
X240000D03*
X250000D03*
D03*
X240000Y243000D03*
D03*
Y253000D03*
X250000D03*
D03*
Y243000D03*
X240000Y293000D03*
Y303000D03*
D03*
Y313000D03*
X250000D03*
Y303000D03*
Y313000D03*
Y293000D03*
D03*
Y283000D03*
Y273000D03*
D03*
X270000Y243000D03*
X280000D03*
X260000D03*
X290000Y233000D03*
Y243000D03*
D03*
Y253000D03*
X270000D03*
X280000D03*
X260000D03*
X270000Y273000D03*
X280000D03*
X260000D03*
Y283000D03*
Y293000D03*
Y303000D03*
Y313000D03*
X270000Y283000D03*
Y293000D03*
Y303000D03*
Y313000D03*
X280000Y283000D03*
Y293000D03*
Y303000D03*
Y313000D03*
X290000Y263000D03*
D03*
X300000D03*
X290000Y273000D03*
Y283000D03*
D03*
X300000Y293000D03*
Y283000D03*
Y293000D03*
Y273000D03*
D03*
Y253000D03*
Y243000D03*
Y253000D03*
Y233000D03*
D03*
X290000Y293000D03*
Y303000D03*
Y313000D03*
Y303000D03*
X300000Y313000D03*
D03*
Y303000D03*
G54D38*X320000Y353000D03*
G54D39*D03*
D03*
D03*
G54D38*X350000D03*
X340000D03*
G54D39*D03*
X350000D03*
X340000D03*
D03*
G54D38*X330000D03*
G54D39*D03*
D03*
Y373000D03*
Y383000D03*
Y363000D03*
G54D38*X350000Y353000D03*
G54D39*Y373000D03*
Y383000D03*
Y363000D03*
X340000Y373000D03*
Y383000D03*
Y363000D03*
X320000Y373000D03*
Y383000D03*
Y363000D03*
G54D38*X280000Y353000D03*
G54D39*X270000D03*
X280000D03*
D03*
X270000D03*
X280000D03*
G54D38*X270000D03*
G54D39*X290000D03*
X300000D03*
D03*
X290000D03*
G54D38*X260000D03*
X250000D03*
G54D39*D03*
X260000D03*
D03*
D03*
G54D38*X300000D03*
X380000Y333000D03*
Y323000D03*
G54D39*Y333000D03*
Y323000D03*
Y333000D03*
G54D38*X370000Y353000D03*
X380000D03*
G54D39*X370000D03*
X380000D03*
D03*
G54D38*X360000D03*
G54D39*D03*
D03*
G54D38*X380000Y343000D03*
G54D39*D03*
D03*
X360000Y333000D03*
Y323000D03*
X370000Y333000D03*
Y323000D03*
X360000Y343000D03*
X370000D03*
X270000Y323000D03*
X280000D03*
X260000D03*
X290000D03*
D03*
X270000Y333000D03*
X260000D03*
X270000Y343000D03*
X260000D03*
X250000Y323000D03*
D03*
Y333000D03*
D03*
Y343000D03*
X290000D03*
D03*
Y333000D03*
X320000Y323000D03*
X310000D03*
X320000Y333000D03*
X310000D03*
X320000Y343000D03*
X310000D03*
X330000Y323000D03*
Y333000D03*
Y343000D03*
X280000Y333000D03*
Y343000D03*
X290000Y333000D03*
X300000Y323000D03*
D03*
X340000D03*
D03*
X350000D03*
D03*
X300000Y333000D03*
D03*
X340000D03*
X350000D03*
X340000D03*
X350000D03*
X300000Y343000D03*
X340000D03*
D03*
X350000D03*
G54D38*X310000Y353000D03*
G54D39*D03*
D03*
X290000Y373000D03*
Y383000D03*
Y363000D03*
X300000Y373000D03*
Y383000D03*
Y363000D03*
X310000Y373000D03*
Y383000D03*
Y363000D03*
X320000Y233000D03*
X330000D03*
X310000D03*
Y243000D03*
Y253000D03*
X330000Y243000D03*
Y253000D03*
Y263000D03*
Y273000D03*
Y283000D03*
Y293000D03*
X310000Y263000D03*
Y273000D03*
Y283000D03*
Y293000D03*
X320000Y273000D03*
Y283000D03*
Y293000D03*
Y303000D03*
X330000D03*
Y313000D03*
X310000Y303000D03*
Y313000D03*
X320000D03*
Y243000D03*
Y253000D03*
Y263000D03*
X340000Y233000D03*
Y243000D03*
Y253000D03*
Y243000D03*
X350000Y253000D03*
D03*
Y243000D03*
Y233000D03*
D03*
X360000Y243000D03*
Y233000D03*
Y243000D03*
Y233000D03*
Y253000D03*
X370000Y243000D03*
X380000D03*
X370000Y233000D03*
X380000D03*
X340000Y263000D03*
Y273000D03*
Y283000D03*
Y263000D03*
Y283000D03*
X350000D03*
Y273000D03*
Y263000D03*
Y273000D03*
X340000Y293000D03*
X350000D03*
D03*
X340000Y303000D03*
Y313000D03*
Y303000D03*
X350000Y313000D03*
Y303000D03*
Y313000D03*
X360000Y293000D03*
X370000Y303000D03*
Y313000D03*
X380000Y303000D03*
Y313000D03*
X360000Y303000D03*
Y313000D03*
Y303000D03*
Y313000D03*
X220000Y133000D03*
X210000D03*
X220000Y143000D03*
X210000D03*
X230000Y133000D03*
Y143000D03*
Y153000D03*
X180000Y103000D03*
Y113000D03*
Y123000D03*
Y133000D03*
X190000Y103000D03*
D03*
Y113000D03*
Y123000D03*
Y133000D03*
Y123000D03*
Y143000D03*
Y153000D03*
Y163000D03*
Y143000D03*
Y163000D03*
Y63000D03*
Y173000D03*
X200000D03*
D03*
Y163000D03*
Y153000D03*
Y143000D03*
Y153000D03*
Y133000D03*
D03*
X230000Y123000D03*
X240000D03*
D03*
Y73000D03*
Y83000D03*
Y93000D03*
Y103000D03*
Y83000D03*
Y103000D03*
Y63000D03*
D03*
Y113000D03*
Y133000D03*
G54D38*X270000Y23000D03*
G54D39*D03*
G54D38*X280000D03*
G54D39*D03*
X290000D03*
X280000D03*
G54D38*X290000D03*
X310000D03*
G54D39*X300000D03*
X310000D03*
X300000D03*
G54D38*D03*
G54D39*D03*
X250000D03*
X270000Y43000D03*
X260000D03*
X270000Y53000D03*
X260000D03*
X280000Y43000D03*
Y53000D03*
Y63000D03*
Y33000D03*
X250000D03*
D03*
X270000D03*
X260000D03*
X250000Y43000D03*
D03*
Y53000D03*
X270000Y63000D03*
X260000D03*
X270000Y73000D03*
X260000D03*
X300000Y53000D03*
Y43000D03*
Y53000D03*
Y33000D03*
D03*
Y43000D03*
X290000D03*
Y53000D03*
Y33000D03*
Y53000D03*
Y43000D03*
X220000Y153000D03*
X210000D03*
X220000Y163000D03*
X210000D03*
X230000D03*
Y173000D03*
Y183000D03*
Y193000D03*
X220000Y173000D03*
X210000D03*
X220000Y183000D03*
X210000D03*
X220000Y193000D03*
X210000D03*
X220000Y203000D03*
X210000D03*
X230000D03*
Y213000D03*
Y223000D03*
X220000Y213000D03*
X210000D03*
X220000Y223000D03*
X210000D03*
X190000Y183000D03*
Y193000D03*
Y183000D03*
Y203000D03*
Y213000D03*
Y223000D03*
Y203000D03*
Y223000D03*
X200000D03*
Y213000D03*
D03*
Y203000D03*
Y193000D03*
Y183000D03*
Y193000D03*
X190000Y53000D03*
Y43000D03*
D03*
Y53000D03*
Y33000D03*
X240000Y143000D03*
Y153000D03*
Y143000D03*
Y163000D03*
Y173000D03*
Y183000D03*
Y163000D03*
Y183000D03*
X250000D03*
Y173000D03*
Y163000D03*
Y173000D03*
Y153000D03*
D03*
X240000Y193000D03*
X250000D03*
D03*
X240000Y203000D03*
D03*
X250000D03*
X240000Y213000D03*
X250000D03*
D03*
X240000Y223000D03*
D03*
X250000D03*
Y143000D03*
Y133000D03*
Y123000D03*
Y133000D03*
Y113000D03*
Y103000D03*
Y113000D03*
Y93000D03*
D03*
Y83000D03*
Y73000D03*
D03*
Y63000D03*
Y53000D03*
X240000D03*
D03*
Y43000D03*
D03*
Y33000D03*
X220000D03*
X230000D03*
X210000D03*
G54D41*X20000Y373000D03*
X370000D03*
Y23000D03*
X20000D03*
G54D42*X159000D02*X181000D01*
X179000D02*X201000D01*
X199000D02*X221000D01*
X159000Y33000D02*X181000D01*
X159000Y43000D02*X181000D01*
X200000Y44000D02*Y22000D01*
X139000Y23000D02*X161000D01*
X150000Y44000D02*Y22000D01*
X140000Y54000D02*Y32000D01*
Y74000D02*Y52000D01*
X150000Y64000D02*Y42000D01*
X159000Y53000D02*X181000D01*
X159000Y63000D02*X181000D01*
X159000Y73000D02*X181000D01*
X190000Y84000D02*Y62000D01*
X200000Y74000D02*Y52000D01*
X190000Y64000D02*Y42000D01*
Y54000D02*Y32000D01*
X200000Y54000D02*Y32000D01*
X140000Y94000D02*Y72000D01*
Y114000D02*Y92000D01*
Y134000D02*Y112000D01*
Y154000D02*Y132000D01*
X150000Y144000D02*Y122000D01*
Y124000D02*Y102000D01*
Y104000D02*Y82000D01*
Y84000D02*Y62000D01*
X159000Y83000D02*X181000D01*
X159000Y93000D02*X181000D01*
X190000Y104000D02*Y82000D01*
X159000Y103000D02*X181000D01*
X159000Y113000D02*X181000D01*
X200000Y114000D02*Y92000D01*
Y94000D02*Y72000D01*
X159000Y123000D02*X181000D01*
X159000Y133000D02*X181000D01*
X190000Y124000D02*Y102000D01*
Y144000D02*Y122000D01*
X200000Y154000D02*Y132000D01*
Y134000D02*Y112000D01*
X39000Y23000D02*X61000D01*
X40000Y44000D02*Y22000D01*
X50000Y44000D02*Y22000D01*
X19000Y43000D02*X41000D01*
X9000D02*X31000D01*
X59000Y23000D02*X81000D01*
X79000D02*X101000D01*
X59000Y33000D02*X81000D01*
X59000Y43000D02*X81000D01*
X59000Y53000D02*X81000D01*
X100000Y44000D02*Y22000D01*
X90000Y54000D02*Y32000D01*
X59000Y63000D02*X81000D01*
X59000Y73000D02*X81000D01*
X59000Y83000D02*X81000D01*
X59000Y93000D02*X81000D01*
X59000Y103000D02*X81000D01*
X10000Y134000D02*Y112000D01*
X20000Y134000D02*Y112000D01*
X10000Y114000D02*Y92000D01*
X20000Y104000D02*Y82000D01*
Y74000D02*Y52000D01*
X10000Y94000D02*Y72000D01*
Y74000D02*Y52000D01*
Y64000D02*Y42000D01*
X40000Y74000D02*Y52000D01*
Y94000D02*Y72000D01*
Y114000D02*Y92000D01*
X30000Y134000D02*Y112000D01*
Y104000D02*Y82000D01*
Y74000D02*Y52000D01*
X40000Y174000D02*Y152000D01*
Y194000D02*Y172000D01*
Y214000D02*Y192000D01*
X50000Y204000D02*Y182000D01*
Y184000D02*Y162000D01*
X9000Y193000D02*X31000D01*
X9000Y213000D02*X31000D01*
X9000Y203000D02*X31000D01*
X9000Y183000D02*X31000D01*
X9000Y173000D02*X31000D01*
X9000Y163000D02*X31000D01*
X40000Y134000D02*Y112000D01*
Y154000D02*Y132000D01*
X50000Y164000D02*Y142000D01*
Y144000D02*Y122000D01*
Y124000D02*Y102000D01*
Y104000D02*Y82000D01*
Y84000D02*Y62000D01*
Y64000D02*Y42000D01*
X109000Y93000D02*X131000D01*
X109000Y103000D02*X131000D01*
X109000Y113000D02*X131000D01*
X109000Y123000D02*X131000D01*
X90000Y114000D02*Y92000D01*
Y134000D02*Y112000D01*
X109000Y133000D02*X131000D01*
X109000Y143000D02*X131000D01*
X109000Y153000D02*X131000D01*
X100000Y184000D02*Y162000D01*
Y164000D02*Y142000D01*
Y144000D02*Y122000D01*
X90000Y154000D02*Y132000D01*
Y174000D02*Y152000D01*
Y194000D02*Y172000D01*
Y214000D02*Y192000D01*
X109000Y163000D02*X131000D01*
X109000Y173000D02*X131000D01*
X109000Y183000D02*X131000D01*
X109000Y193000D02*X131000D01*
X100000Y204000D02*Y182000D01*
X109000Y203000D02*X131000D01*
X109000Y213000D02*X131000D01*
X99000Y23000D02*X121000D01*
X119000D02*X141000D01*
X109000Y33000D02*X131000D01*
X109000Y43000D02*X131000D01*
X109000Y53000D02*X131000D01*
X109000Y63000D02*X131000D01*
X109000Y73000D02*X131000D01*
X109000Y83000D02*X131000D01*
X90000Y74000D02*Y52000D01*
Y94000D02*Y72000D01*
X100000Y124000D02*Y102000D01*
Y104000D02*Y82000D01*
Y84000D02*Y62000D01*
Y64000D02*Y42000D01*
X59000Y113000D02*X81000D01*
X59000Y123000D02*X81000D01*
X59000Y133000D02*X81000D01*
X59000Y143000D02*X81000D01*
X59000Y153000D02*X81000D01*
X59000Y163000D02*X81000D01*
X59000Y173000D02*X81000D01*
X59000Y183000D02*X81000D01*
X59000Y193000D02*X81000D01*
X59000Y203000D02*X81000D01*
X59000Y213000D02*X81000D01*
X19000Y353000D02*X41000D01*
X39000D02*X61000D01*
X10000Y354000D02*Y332000D01*
X40000Y354000D02*Y332000D01*
X50000Y344000D02*Y322000D01*
X30000Y344000D02*Y322000D01*
X20000Y344000D02*Y322000D01*
X89000Y353000D02*X111000D01*
X119000D02*X141000D01*
X109000D02*X131000D01*
X139000D02*X161000D01*
X150000Y344000D02*Y322000D01*
X140000Y354000D02*Y332000D01*
X109000Y323000D02*X131000D01*
X109000Y333000D02*X131000D01*
X109000Y343000D02*X131000D01*
X100000Y344000D02*Y322000D01*
X49000Y353000D02*X71000D01*
X69000D02*X91000D01*
X59000Y323000D02*X81000D01*
X59000Y333000D02*X81000D01*
X59000Y343000D02*X81000D01*
X90000Y354000D02*Y332000D01*
X159000Y353000D02*X181000D01*
X179000D02*X201000D01*
X159000Y303000D02*X181000D01*
X159000Y313000D02*X181000D01*
X159000Y323000D02*X181000D01*
X159000Y333000D02*X181000D01*
X159000Y343000D02*X181000D01*
X190000Y344000D02*Y322000D01*
X200000Y344000D02*Y322000D01*
X190000Y354000D02*Y332000D01*
X159000Y243000D02*X181000D01*
X159000Y253000D02*X181000D01*
X140000Y254000D02*Y232000D01*
X150000Y264000D02*Y242000D01*
X159000Y283000D02*X181000D01*
X159000Y293000D02*X181000D01*
X140000Y274000D02*Y252000D01*
Y294000D02*Y272000D01*
Y314000D02*Y292000D01*
Y334000D02*Y312000D01*
X150000Y304000D02*Y282000D01*
Y284000D02*Y262000D01*
Y324000D02*Y302000D01*
X190000Y304000D02*Y282000D01*
X200000Y294000D02*Y272000D01*
X159000Y263000D02*X181000D01*
X159000Y273000D02*X181000D01*
X190000Y284000D02*Y262000D01*
X200000Y274000D02*Y252000D01*
X190000Y264000D02*Y242000D01*
X200000Y254000D02*Y232000D01*
X10000Y334000D02*Y312000D01*
Y314000D02*Y292000D01*
Y294000D02*Y272000D01*
Y274000D02*Y252000D01*
Y254000D02*Y232000D01*
X20000Y314000D02*Y292000D01*
Y284000D02*Y262000D01*
Y254000D02*Y232000D01*
X59000Y293000D02*X81000D01*
X59000Y303000D02*X81000D01*
X59000Y313000D02*X81000D01*
X40000Y314000D02*Y292000D01*
Y334000D02*Y312000D01*
X50000Y324000D02*Y302000D01*
Y264000D02*Y242000D01*
X30000Y314000D02*Y292000D01*
Y284000D02*Y262000D01*
Y254000D02*Y232000D01*
X109000Y223000D02*X131000D01*
X59000D02*X81000D01*
X109000Y233000D02*X131000D01*
X59000D02*X81000D01*
X109000Y243000D02*X131000D01*
X90000Y234000D02*Y212000D01*
Y254000D02*Y232000D01*
X100000Y244000D02*Y222000D01*
Y224000D02*Y202000D01*
X109000Y253000D02*X131000D01*
X109000Y263000D02*X131000D01*
X90000Y274000D02*Y252000D01*
X109000Y273000D02*X131000D01*
X109000Y283000D02*X131000D01*
X90000Y294000D02*Y272000D01*
X109000Y293000D02*X131000D01*
X109000Y303000D02*X131000D01*
X109000Y313000D02*X131000D01*
X90000Y314000D02*Y292000D01*
Y334000D02*Y312000D01*
X100000Y324000D02*Y302000D01*
Y304000D02*Y282000D01*
Y284000D02*Y262000D01*
Y264000D02*Y242000D01*
X59000Y243000D02*X81000D01*
X59000Y253000D02*X81000D01*
X59000Y273000D02*X81000D01*
X59000Y263000D02*X81000D01*
X59000Y283000D02*X81000D01*
X50000Y304000D02*Y282000D01*
X40000Y294000D02*Y272000D01*
X50000Y284000D02*Y262000D01*
X40000Y274000D02*Y252000D01*
Y254000D02*Y232000D01*
X50000Y244000D02*Y222000D01*
X40000Y234000D02*Y212000D01*
X50000Y224000D02*Y202000D01*
X170000Y384000D02*Y362000D01*
X160000Y384000D02*Y362000D01*
X150000Y384000D02*Y362000D01*
X140000Y384000D02*Y362000D01*
X180000Y384000D02*Y362000D01*
X190000Y384000D02*Y362000D01*
X201000Y384000D02*Y362000D01*
X130000Y384000D02*Y362000D01*
X120000Y384000D02*Y362000D01*
X110000Y384000D02*Y362000D01*
X100000Y384000D02*Y362000D01*
X90000Y384000D02*Y362000D01*
X80000Y384000D02*Y362000D01*
X70000Y384000D02*Y362000D01*
X60000Y384000D02*Y362000D01*
X50000Y384000D02*Y362000D01*
X40000Y384000D02*Y362000D01*
X159000Y143000D02*X181000D01*
X159000Y153000D02*X181000D01*
X159000Y163000D02*X181000D01*
X159000Y173000D02*X181000D01*
X140000Y174000D02*Y152000D01*
X150000Y164000D02*Y142000D01*
X190000Y164000D02*Y142000D01*
Y184000D02*Y162000D01*
X159000Y183000D02*X181000D01*
X159000Y193000D02*X181000D01*
X159000Y203000D02*X181000D01*
X190000Y204000D02*Y182000D01*
X140000Y194000D02*Y172000D01*
Y214000D02*Y192000D01*
X150000Y224000D02*Y202000D01*
X140000Y234000D02*Y212000D01*
X150000Y244000D02*Y222000D01*
Y204000D02*Y182000D01*
Y184000D02*Y162000D01*
X209000Y153000D02*X231000D01*
X209000Y163000D02*X231000D01*
X209000Y173000D02*X231000D01*
X209000Y183000D02*X231000D01*
X200000Y194000D02*Y172000D01*
Y174000D02*Y152000D01*
X240000Y164000D02*Y142000D01*
Y184000D02*Y162000D01*
X250000Y194000D02*Y172000D01*
Y174000D02*Y152000D01*
X159000Y213000D02*X181000D01*
X159000Y223000D02*X181000D01*
X159000Y233000D02*X181000D01*
X190000Y244000D02*Y222000D01*
X200000Y234000D02*Y212000D01*
X190000Y224000D02*Y202000D01*
X200000Y214000D02*Y192000D01*
X209000Y193000D02*X231000D01*
X240000Y204000D02*Y182000D01*
Y224000D02*Y202000D01*
Y244000D02*Y222000D01*
X209000Y203000D02*X231000D01*
X209000Y213000D02*X231000D01*
X209000Y223000D02*X231000D01*
X209000Y233000D02*X231000D01*
X209000Y243000D02*X231000D01*
X209000Y253000D02*X231000D01*
X209000Y263000D02*X231000D01*
X209000Y273000D02*X231000D01*
X209000Y283000D02*X231000D01*
X209000Y293000D02*X231000D01*
X209000Y303000D02*X231000D01*
X209000Y313000D02*X231000D01*
X190000Y324000D02*Y302000D01*
X200000Y334000D02*Y312000D01*
Y314000D02*Y292000D01*
X240000Y264000D02*Y242000D01*
Y284000D02*Y262000D01*
X250000Y294000D02*Y272000D01*
X240000Y304000D02*Y282000D01*
X250000Y274000D02*Y252000D01*
Y254000D02*Y232000D01*
Y234000D02*Y212000D01*
Y214000D02*Y192000D01*
X209000Y323000D02*X231000D01*
X209000Y333000D02*X231000D01*
X209000Y343000D02*X231000D01*
X240000Y324000D02*Y302000D01*
X250000Y314000D02*Y292000D01*
X240000Y344000D02*Y322000D01*
Y354000D02*Y332000D01*
X250000Y334000D02*Y312000D01*
Y344000D02*Y322000D01*
X210000Y384000D02*Y362000D01*
X219000Y23000D02*X241000D01*
X239000D02*X261000D01*
X259000D02*X281000D01*
X279000D02*X301000D01*
X299000D02*X321000D01*
X209000Y43000D02*X231000D01*
X209000Y33000D02*X231000D01*
X209000Y53000D02*X231000D01*
X209000Y63000D02*X231000D01*
X209000Y73000D02*X231000D01*
X240000Y84000D02*Y62000D01*
Y64000D02*Y42000D01*
Y54000D02*Y32000D01*
X209000Y83000D02*X231000D01*
X209000Y93000D02*X231000D01*
X209000Y103000D02*X231000D01*
X209000Y113000D02*X231000D01*
X209000Y123000D02*X231000D01*
X209000Y133000D02*X231000D01*
X209000Y143000D02*X231000D01*
X240000Y104000D02*Y82000D01*
Y124000D02*Y102000D01*
Y144000D02*Y122000D01*
X259000Y43000D02*X281000D01*
X259000Y33000D02*X281000D01*
X259000Y53000D02*X281000D01*
X259000Y63000D02*X281000D01*
X259000Y73000D02*X281000D01*
X250000Y74000D02*Y52000D01*
Y44000D02*Y22000D01*
Y54000D02*Y32000D01*
X259000Y83000D02*X281000D01*
X259000Y93000D02*X281000D01*
X259000Y103000D02*X281000D01*
X250000Y114000D02*Y92000D01*
Y94000D02*Y72000D01*
X290000Y84000D02*Y62000D01*
Y54000D02*Y32000D01*
Y64000D02*Y42000D01*
Y104000D02*Y82000D01*
Y144000D02*Y122000D01*
X300000Y134000D02*Y112000D01*
X290000Y124000D02*Y102000D01*
X300000Y114000D02*Y92000D01*
Y94000D02*Y72000D01*
Y74000D02*Y52000D01*
Y54000D02*Y32000D01*
Y44000D02*Y22000D01*
X319000Y23000D02*X341000D01*
X329000D02*X351000D01*
X309000Y43000D02*X331000D01*
X309000Y33000D02*X331000D01*
X350000Y44000D02*Y22000D01*
X380000Y144000D02*Y122000D01*
Y124000D02*Y102000D01*
Y104000D02*Y82000D01*
X370000Y134000D02*Y112000D01*
X360000Y134000D02*Y112000D01*
Y104000D02*Y82000D01*
X370000Y104000D02*Y82000D01*
X309000Y73000D02*X331000D01*
X309000Y93000D02*X331000D01*
X340000Y104000D02*Y82000D01*
X309000Y103000D02*X331000D01*
X350000Y134000D02*Y112000D01*
Y114000D02*Y92000D01*
Y94000D02*Y72000D01*
X380000Y84000D02*Y62000D01*
Y64000D02*Y42000D01*
X370000Y74000D02*Y52000D01*
X360000Y74000D02*Y52000D01*
X359000Y43000D02*X381000D01*
X309000Y53000D02*X331000D01*
X309000Y63000D02*X331000D01*
X309000Y83000D02*X331000D01*
X340000Y84000D02*Y62000D01*
X350000Y74000D02*Y52000D01*
Y54000D02*Y32000D01*
X340000Y54000D02*Y32000D01*
Y64000D02*Y42000D01*
X259000Y113000D02*X281000D01*
X259000Y123000D02*X281000D01*
X259000Y133000D02*X281000D01*
X259000Y143000D02*X281000D01*
X259000Y153000D02*X281000D01*
X250000Y154000D02*Y132000D01*
Y134000D02*Y112000D01*
X290000Y164000D02*Y142000D01*
Y184000D02*Y162000D01*
X300000Y194000D02*Y172000D01*
X290000Y204000D02*Y182000D01*
X300000Y214000D02*Y192000D01*
Y174000D02*Y152000D01*
Y154000D02*Y132000D01*
X309000Y113000D02*X331000D01*
X309000Y123000D02*X331000D01*
X340000Y124000D02*Y102000D01*
X309000Y133000D02*X331000D01*
X309000Y143000D02*X331000D01*
X309000Y153000D02*X331000D01*
X340000Y144000D02*Y122000D01*
Y164000D02*Y142000D01*
Y184000D02*Y162000D01*
Y204000D02*Y182000D01*
X350000Y214000D02*Y192000D01*
Y194000D02*Y172000D01*
Y154000D02*Y132000D01*
X199000Y353000D02*X221000D01*
X219000D02*X241000D01*
X209000D02*X231000D01*
X239000D02*X261000D01*
X259000D02*X281000D01*
X279000D02*X301000D01*
X259000D02*X281000D01*
X299000D02*X321000D01*
X319000D02*X341000D01*
X309000D02*X331000D01*
X309000Y323000D02*X331000D01*
X300000Y334000D02*Y312000D01*
Y344000D02*Y322000D01*
X309000Y333000D02*X331000D01*
X309000Y343000D02*X331000D01*
X340000Y344000D02*Y322000D01*
X350000Y334000D02*Y312000D01*
Y344000D02*Y322000D01*
X339000Y353000D02*X361000D01*
X340000Y354000D02*Y332000D01*
X350000Y384000D02*Y362000D01*
X340000Y384000D02*Y362000D01*
X330000Y384000D02*Y362000D01*
X360000Y344000D02*Y322000D01*
X290000Y384000D02*Y362000D01*
X300000Y384000D02*Y362000D01*
X310000Y384000D02*Y362000D01*
X320000Y384000D02*Y362000D01*
X259000Y163000D02*X281000D01*
X259000Y173000D02*X281000D01*
X259000Y183000D02*X281000D01*
X259000Y193000D02*X281000D01*
X259000Y203000D02*X281000D01*
X259000Y213000D02*X281000D01*
X259000Y223000D02*X281000D01*
X259000Y233000D02*X281000D01*
X259000Y243000D02*X281000D01*
X290000Y224000D02*Y202000D01*
Y244000D02*Y222000D01*
X259000Y253000D02*X281000D01*
X259000Y263000D02*X281000D01*
X259000Y273000D02*X281000D01*
X259000Y283000D02*X281000D01*
X259000Y293000D02*X281000D01*
X259000Y303000D02*X281000D01*
X259000Y313000D02*X281000D01*
X259000Y323000D02*X281000D01*
X259000Y333000D02*X281000D01*
X259000Y343000D02*X281000D01*
X290000Y264000D02*Y242000D01*
Y284000D02*Y262000D01*
Y304000D02*Y282000D01*
Y324000D02*Y302000D01*
Y344000D02*Y322000D01*
Y354000D02*Y332000D01*
X380000Y224000D02*Y202000D01*
Y204000D02*Y182000D01*
G54D43*X382000Y257500D02*Y250250D01*
G54D42*X380000Y184000D02*Y162000D01*
Y164000D02*Y142000D01*
X370000Y224000D02*Y202000D01*
Y194000D02*Y172000D01*
Y164000D02*Y142000D01*
X309000Y163000D02*X331000D01*
X309000Y173000D02*X331000D01*
X309000Y183000D02*X331000D01*
X309000Y193000D02*X331000D01*
X309000Y203000D02*X331000D01*
X309000Y213000D02*X331000D01*
X340000Y224000D02*Y202000D01*
X350000Y174000D02*Y152000D01*
X360000Y194000D02*Y172000D01*
Y164000D02*Y142000D01*
X309000Y223000D02*X331000D01*
X309000Y233000D02*X331000D01*
X309000Y243000D02*X331000D01*
X300000Y274000D02*Y252000D01*
Y254000D02*Y232000D01*
Y234000D02*Y212000D01*
X309000Y253000D02*X331000D01*
X309000Y263000D02*X331000D01*
X340000Y264000D02*Y242000D01*
Y284000D02*Y262000D01*
X350000Y274000D02*Y252000D01*
X340000Y244000D02*Y222000D01*
X350000Y254000D02*Y232000D01*
Y234000D02*Y212000D01*
X360000Y254000D02*Y232000D01*
G54D44*X363000Y267882D02*X367500D01*
X363000Y263846D02*X367500D01*
G54D43*X369000Y257500D02*Y250250D01*
G54D42*X360000Y224000D02*Y202000D01*
X359000Y243000D02*X381000D01*
X359000Y233000D02*X381000D01*
X309000Y273000D02*X331000D01*
X309000Y283000D02*X331000D01*
X300000Y294000D02*Y272000D01*
X309000Y293000D02*X331000D01*
X309000Y303000D02*X331000D01*
X309000Y313000D02*X331000D01*
X300000Y314000D02*Y292000D01*
X359000Y353000D02*X381000D01*
X380000Y354000D02*Y332000D01*
Y344000D02*Y322000D01*
X370000Y344000D02*Y322000D01*
X359000Y313000D02*X381000D01*
X340000Y304000D02*Y282000D01*
Y324000D02*Y302000D01*
X350000Y314000D02*Y292000D01*
X360000Y314000D02*Y292000D01*
X350000Y294000D02*Y272000D01*
G54D44*X363000Y270441D02*X367500D01*
X363000Y273000D02*X367500D01*
X363000Y275559D02*X367500D01*
X363000Y278118D02*X367500D01*
X363000Y282154D02*X367500D01*
G54D43*X369000Y295750D02*Y288500D01*
G54D42*X359000Y303000D02*X381000D01*
G54D43*X382000Y295750D02*Y288500D01*
M02*
